Library\Bee\artifacts\mvdfrm\UnityEditor.UI.ref.dll_4C98D3F7040CD4F5.mvfrm
Library\Bee\artifacts\mvdfrm\UnityEngine.UI.ref.dll_08FEAA520A2EFD60.mvfrm
Library\Bee\artifacts\mvdfrm\UnityEditor.Graphs.dll_20D1746CE2EFDADF.mvfrm
Library\Bee\artifacts\mvdfrm\UnityEditor.CoreModule.dll_DEB6AB0194673DAD.mvfrm
Library\Bee\artifacts\mvdfrm\UnityEditor.DeviceSimulatorModule.dll_3762212741AC5AA4.mvfrm
Library\Bee\artifacts\mvdfrm\UnityEditor.DiagnosticsModule.dll_6F73A226FC1F43F2.mvfrm
Library\Bee\artifacts\mvdfrm\UnityEditor.dll_0CE1D133618B1C58.mvfrm
Library\Bee\artifacts\mvdfrm\UnityEditor.GraphViewModule.dll_028C0827D9AA5D89.mvfrm
Library\Bee\artifacts\mvdfrm\UnityEditor.PackageManagerUIModule.dll_7EBF25E6225164C9.mvfrm
Library\Bee\artifacts\mvdfrm\UnityEditor.QuickSearchModule.dll_FA83233454F6404B.mvfrm
Library\Bee\artifacts\mvdfrm\UnityEditor.SceneTemplateModule.dll_6B8CA4F8F686462C.mvfrm
Library\Bee\artifacts\mvdfrm\UnityEditor.TextCoreFontEngineModule.dll_38A7A0BFEAF4688B.mvfrm
Library\Bee\artifacts\mvdfrm\UnityEditor.TextCoreTextEngineModule.dll_808FD7317A7821A9.mvfrm
Library\Bee\artifacts\mvdfrm\UnityEditor.UIBuilderModule.dll_5714B5444C62D6BD.mvfrm
Library\Bee\artifacts\mvdfrm\UnityEditor.UIElementsModule.dll_28D12A77FDC31FC9.mvfrm
Library\Bee\artifacts\mvdfrm\UnityEditor.UIElementsSamplesModule.dll_0ABE6525B119F134.mvfrm
Library\Bee\artifacts\mvdfrm\UnityEditor.UIServiceModule.dll_9006C6A7359A26D7.mvfrm
Library\Bee\artifacts\mvdfrm\UnityEditor.UnityConnectModule.dll_B730C06B5C65C2E3.mvfrm
Library\Bee\artifacts\mvdfrm\UnityEngine.AccessibilityModule.dll_9E32108FF6FC6DC9.mvfrm
Library\Bee\artifacts\mvdfrm\UnityEngine.AIModule.dll_EF6B8CB6F6309861.mvfrm
Library\Bee\artifacts\mvdfrm\UnityEngine.AndroidJNIModule.dll_A71A134B46E28E9F.mvfrm
Library\Bee\artifacts\mvdfrm\UnityEngine.AnimationModule.dll_D1118450B407322F.mvfrm
Library\Bee\artifacts\mvdfrm\UnityEngine.ARModule.dll_A8DE51BA534DF72A.mvfrm
Library\Bee\artifacts\mvdfrm\UnityEngine.AssetBundleModule.dll_3E6C5625B75CF53D.mvfrm
Library\Bee\artifacts\mvdfrm\UnityEngine.AudioModule.dll_5F275724645DEF61.mvfrm
Library\Bee\artifacts\mvdfrm\UnityEngine.ClothModule.dll_C60FB41F3E7ACE45.mvfrm
Library\Bee\artifacts\mvdfrm\UnityEngine.ClusterInputModule.dll_36CD35810DED95A9.mvfrm
Library\Bee\artifacts\mvdfrm\UnityEngine.ClusterRendererModule.dll_3D0EE398B1676828.mvfrm
Library\Bee\artifacts\mvdfrm\UnityEngine.CoreModule.dll_01D77E543C6CA8D8.mvfrm
Library\Bee\artifacts\mvdfrm\UnityEngine.CrashReportingModule.dll_5C30BDDDC8CD3370.mvfrm
Library\Bee\artifacts\mvdfrm\UnityEngine.DirectorModule.dll_64201B314EE66CF5.mvfrm
Library\Bee\artifacts\mvdfrm\UnityEngine.dll_3F86180BBFFEA93D.mvfrm
Library\Bee\artifacts\mvdfrm\UnityEngine.DSPGraphModule.dll_69717C9AC1473E16.mvfrm
Library\Bee\artifacts\mvdfrm\UnityEngine.GameCenterModule.dll_D1675D660D237F90.mvfrm
Library\Bee\artifacts\mvdfrm\UnityEngine.GIModule.dll_87A7D5C491DF807B.mvfrm
Library\Bee\artifacts\mvdfrm\UnityEngine.GridModule.dll_DF489A4254C13ECF.mvfrm
Library\Bee\artifacts\mvdfrm\UnityEngine.HotReloadModule.dll_525A42568F3A4DB1.mvfrm
Library\Bee\artifacts\mvdfrm\UnityEngine.ImageConversionModule.dll_A900E149338C201C.mvfrm
Library\Bee\artifacts\mvdfrm\UnityEngine.IMGUIModule.dll_9786F68B2A8F8342.mvfrm
Library\Bee\artifacts\mvdfrm\UnityEngine.InputLegacyModule.dll_CFB171444F4EAB2E.mvfrm
Library\Bee\artifacts\mvdfrm\UnityEngine.InputModule.dll_C59D1ED4DA961405.mvfrm
Library\Bee\artifacts\mvdfrm\UnityEngine.JSONSerializeModule.dll_FE4999CBF637CE53.mvfrm
Library\Bee\artifacts\mvdfrm\UnityEngine.LocalizationModule.dll_7519FFD3A56988A2.mvfrm
Library\Bee\artifacts\mvdfrm\UnityEngine.ParticleSystemModule.dll_AF43072A36DEBEFE.mvfrm
Library\Bee\artifacts\mvdfrm\UnityEngine.PerformanceReportingModule.dll_B5E1F7A7BAF31597.mvfrm
Library\Bee\artifacts\mvdfrm\UnityEngine.Physics2DModule.dll_1DB77441550429C4.mvfrm
Library\Bee\artifacts\mvdfrm\UnityEngine.PhysicsModule.dll_DFFCE0D09A50C052.mvfrm
Library\Bee\artifacts\mvdfrm\UnityEngine.ProfilerModule.dll_96665467E83FF402.mvfrm
Library\Bee\artifacts\mvdfrm\UnityEngine.RuntimeInitializeOnLoadManagerInitializerModule.dll_DA8E28933CC3228D.mvfrm
Library\Bee\artifacts\mvdfrm\UnityEngine.ScreenCaptureModule.dll_183147510AA3FAB5.mvfrm
Library\Bee\artifacts\mvdfrm\UnityEngine.SharedInternalsModule.dll_2D12201EAABA1B6C.mvfrm
Library\Bee\artifacts\mvdfrm\UnityEngine.SpriteMaskModule.dll_BA93CFF62E93150A.mvfrm
Library\Bee\artifacts\mvdfrm\UnityEngine.SpriteShapeModule.dll_57CD83806CFF2D47.mvfrm
Library\Bee\artifacts\mvdfrm\UnityEngine.StreamingModule.dll_85A671A1038EE96D.mvfrm
Library\Bee\artifacts\mvdfrm\UnityEngine.SubstanceModule.dll_625185EA4EE1E77B.mvfrm
Library\Bee\artifacts\mvdfrm\UnityEngine.SubsystemsModule.dll_25413657FCDAFD1D.mvfrm
Library\Bee\artifacts\mvdfrm\UnityEngine.TerrainModule.dll_FA435C3F700F0940.mvfrm
Library\Bee\artifacts\mvdfrm\UnityEngine.TerrainPhysicsModule.dll_AFBDAFFD5021B98B.mvfrm
Library\Bee\artifacts\mvdfrm\UnityEngine.TextCoreFontEngineModule.dll_B7071C12FDF22756.mvfrm
Library\Bee\artifacts\mvdfrm\UnityEngine.TextCoreTextEngineModule.dll_FEEF52848D75E074.mvfrm
Library\Bee\artifacts\mvdfrm\UnityEngine.TextRenderingModule.dll_4170B95BC1DB7AAA.mvfrm
Library\Bee\artifacts\mvdfrm\UnityEngine.TilemapModule.dll_993FC3C087CBEA49.mvfrm
Library\Bee\artifacts\mvdfrm\UnityEngine.TLSModule.dll_D53148FA96EFACA6.mvfrm
Library\Bee\artifacts\mvdfrm\UnityEngine.UIElementsModule.dll_297F97C000073914.mvfrm
Library\Bee\artifacts\mvdfrm\UnityEngine.UIElementsNativeModule.dll_C938DA7B93C9D4EB.mvfrm
Library\Bee\artifacts\mvdfrm\UnityEngine.UIModule.dll_EADF2AE452779E0D.mvfrm
Library\Bee\artifacts\mvdfrm\UnityEngine.UmbraModule.dll_D9FC033CF1849AD4.mvfrm
Library\Bee\artifacts\mvdfrm\UnityEngine.UNETModule.dll_947DC63D897B9E51.mvfrm
Library\Bee\artifacts\mvdfrm\UnityEngine.UnityAnalyticsModule.dll_CEE277F3E30610FA.mvfrm
Library\Bee\artifacts\mvdfrm\UnityEngine.UnityConnectModule.dll_A490447A56EDC38E.mvfrm
Library\Bee\artifacts\mvdfrm\UnityEngine.UnityCurlModule.dll_042E2582241B241C.mvfrm
Library\Bee\artifacts\mvdfrm\UnityEngine.UnityTestProtocolModule.dll_C6811B180B15468A.mvfrm
Library\Bee\artifacts\mvdfrm\UnityEngine.UnityWebRequestAssetBundleModule.dll_37D7F89B66015F4B.mvfrm
Library\Bee\artifacts\mvdfrm\UnityEngine.UnityWebRequestAudioModule.dll_2DDE4B86415DE02F.mvfrm
Library\Bee\artifacts\mvdfrm\UnityEngine.UnityWebRequestModule.dll_BA9FE8F33E80BA9B.mvfrm
Library\Bee\artifacts\mvdfrm\UnityEngine.UnityWebRequestTextureModule.dll_2F3FCB098009E1E4.mvfrm
Library\Bee\artifacts\mvdfrm\UnityEngine.UnityWebRequestWWWModule.dll_C9B197E07D359CE0.mvfrm
Library\Bee\artifacts\mvdfrm\UnityEngine.VehiclesModule.dll_DBE314B0C9103C90.mvfrm
Library\Bee\artifacts\mvdfrm\UnityEngine.VFXModule.dll_560FE1696D5D1613.mvfrm
Library\Bee\artifacts\mvdfrm\UnityEngine.VideoModule.dll_8430DB8F26F00B06.mvfrm
Library\Bee\artifacts\mvdfrm\UnityEngine.VirtualTexturingModule.dll_EDC58EEA6C785576.mvfrm
Library\Bee\artifacts\mvdfrm\UnityEngine.VRModule.dll_3DB15169F4322385.mvfrm
Library\Bee\artifacts\mvdfrm\UnityEngine.WindModule.dll_7826597CCDA32741.mvfrm
Library\Bee\artifacts\mvdfrm\UnityEngine.XRModule.dll_7070146E7D6C70E3.mvfrm
Library\Bee\artifacts\mvdfrm\UnityEditor.WindowsStandalone.Extensions.dll_6E8D0C82EF08D3C3.mvfrm
Library\Bee\artifacts\mvdfrm\Unity.Plastic.Antlr3.Runtime.dll_387C7F678BFDE73F.mvfrm
Library\Bee\artifacts\mvdfrm\Unity.Plastic.Newtonsoft.Json.dll_4B30EED0A3951686.mvfrm
Library\Bee\artifacts\mvdfrm\Unity.VisualScripting.IonicZip.dll_2CD2FE7F1D8B10A6.mvfrm
Library\Bee\artifacts\mvdfrm\Unity.VisualScripting.YamlDotNet.dll_E29BA7E696B96DB6.mvfrm
Library\Bee\artifacts\mvdfrm\Unity.VisualScripting.Antlr3.Runtime.dll_9408CEC7C7827DD5.mvfrm